lovetoken
…
오늘 주제인 fst 형으로 저장하는 방법과 그 외의 방법들로 저장하는 코드별 코드수행 시간을 측정하여 plotting 해 보는 코드이다.

library(dplyr)
library(microbenchmark)

nr_of_rows <- 10^8

df <- data.frame(Logical = sample(c(T, F, NA), prob = c(.85, .1, .05), nr_of_rows, replace = T), 
                 Integer = sample(1L:100L, nr_of_rows, replace = T), 
                 Real = sample(sample(1:10000, 20) / 100, nr_of_rows, replace = T),
                 Factor = as.factor(sample(labels(UScitiesD), nr_of_rows, replace = T))) %>% tbl_df

df

## # A tibble: 100,000,000 x 4
##    Logical Integer  Real Factor       
##    <lgl>     <int> <dbl> <fct>        
##  1 T            30  97.6 Chicago      
##  2 T            42  61.0 Atlanta      
##  3 NA           21  97.6 Chicago      
##  4 T             3  97.6 Miami        
##  5 T            89  48.2 Washington.DC
##  6 T            52  62.9 SanFrancisco 
##  7 T            41  31.5 NewYork      
##  8 T            38  47.1 Chicago      
##  9 T            21  48.2 Denver       
## 10 T            78  48.2 Denver       
## # ... with 99,999,990 more rows
…
