lovetoken
…
dplyr package 와 조합하여 현업에서 어떻게 시너지를 일으킬 지를
보잘것없는 예제를 통해 조금이나마 확인해 볼 필요가 있겠다.

lubridate package 에 내장된 데이터셋 lakers 를 이용해
보았다.

library(dplyr)
data(lakers)

lakers <- lakers %>% tbl_df
lakers

## # A tibble: 34,624 x 13
##        date opponent game_type  time period      etype  team
##       <int>    <chr>     <chr> <chr>  <int>      <chr> <chr>
##  1 20081028      POR      home 12:00      1  jump ball   OFF
##  2 20081028      POR      home 11:39      1       shot   LAL
##  3 20081028      POR      home 11:37      1    rebound   LAL
##  4 20081028      POR      home 11:25      1       shot   LAL
##  5 20081028      POR      home 11:23      1    rebound   LAL
##  6 20081028      POR      home 11:22      1       shot   LAL
##  7 20081028      POR      home 11:22      1       foul   POR
##  8 20081028      POR      home 11:22      1 free throw   LAL
##  9 20081028      POR      home 11:00      1       foul   LAL
## 10 20081028      POR      home 10:53      1       shot   POR
## # ... with 34,614 more rows, and 6 more variables: player <chr>,
## #   result <chr>, points <int>, type <chr>, x <int>, y <int>

잘 보면 date, time 변수가 서로 나뉘어
있다.

이를 지금까지 배운 lubridate 함수들을 이용하여 통합시켜 관리해보고
싶었다.

lakers <- lakers %>% 
    mutate(date = paste(date, time) %>% ymd_hm) %>% 
    rename(time_index = date) %>% 
    select(-time)

lakers

## # A tibble: 34,624 x 12
##             time_index opponent game_type period      etype  team
##                 <dttm>    <chr>     <chr>  <int>      <chr> <chr>
##  1 2008-10-28 12:00:00      POR      home      1  jump ball   OFF
##  2 2008-10-28 11:39:00      POR      home      1       shot   LAL
##  3 2008-10-28 11:37:00      POR      home      1    rebound   LAL
##  4 2008-10-28 11:25:00      POR      home      1       shot   LAL
##  5 2008-10-28 11:23:00      POR      home      1    rebound   LAL
##  6 2008-10-28 11:22:00      POR      home      1       shot   LAL
##  7 2008-10-28 11:22:00      POR      home      1       foul   POR
##  8 2008-10-28 11:22:00      POR      home      1 free throw   LAL
##  9 2008-10-28 11:00:00      POR      home      1       foul   LAL
## 10 2008-10-28 10:53:00      POR      home      1       shot   POR
## # ... with 34,614 more rows, and 6 more variables: player <chr>,
## #   result <chr>, points <int>, type <chr>, x <int>, y <int>
…
Filter

두번째는 dplyr::filter() 를 이용해 분석에 사용할 기간을
서브세팅 해보는 예제를 만들어 보고 싶었다.

아래 코드는 “2008-10-28 12:00:00” 이전의 기간을 서브세팅 하는
코드이다.

lakers %>% 
    filter(time_index <= ymd_hms("2008-10-28 12:00:00"))

## # A tibble: 416 x 12
##             time_index opponent game_type period      etype  team
##                 <dttm>    <chr>     <chr>  <int>      <chr> <chr>
##  1 2008-10-28 12:00:00      POR      home      1  jump ball   OFF
##  2 2008-10-28 11:39:00      POR      home      1       shot   LAL
##  3 2008-10-28 11:37:00      POR      home      1    rebound   LAL
##  4 2008-10-28 11:25:00      POR      home      1       shot   LAL
##  5 2008-10-28 11:23:00      POR      home      1    rebound   LAL
##  6 2008-10-28 11:22:00      POR      home      1       shot   LAL
##  7 2008-10-28 11:22:00      POR      home      1       foul   POR
##  8 2008-10-28 11:22:00      POR      home      1 free throw   LAL
##  9 2008-10-28 11:00:00      POR      home      1       foul   LAL
## 10 2008-10-28 10:53:00      POR      home      1       shot   POR
## # ... with 406 more rows, and 6 more variables: player <chr>,
## #   result <chr>, points <int>, type <chr>, x <int>, y <int>

잘 보면 기존에 레코드는 34624 개 였지만, 서브세팅 된 후 레코드는 416
개로 줄어든 것을 확인할 수 있다.

만약 “2008-10-28 12:00:00” ~ “2009-03-09 00:33:00” 의 기간에 대해서
서브세팅을 하고싶다면 어떻게 하여야 할까?

물론 filter() 안에 조건을 하나 더 넣으면 된다.

lakers %>% 
    filter(time_index >= ymd_hms("2008-10-28 12:00:00"), time_index <= ymd_hms("2009-03-09 00:33:00"))

## # A tibble: 25,554 x 12
##             time_index opponent game_type period     etype  team
##                 <dttm>    <chr>     <chr>  <int>     <chr> <chr>
##  1 2008-10-28 12:00:00      POR      home      1 jump ball   OFF
##  2 2008-10-29 12:00:00      LAC      away      1 jump ball   OFF
##  3 2008-10-29 11:36:00      LAC      away      1      shot   LAL
##  4 2008-10-29 11:24:00      LAC      away      1      shot   LAC
##  5 2008-10-29 11:24:00      LAC      away      1   rebound   LAL
##  6 2008-10-29 11:08:00      LAC      away      1      shot   LAL
##  7 2008-10-29 10:58:00      LAC      away      1      shot   LAC
##  8 2008-10-29 10:57:00      LAC      away      1   rebound   LAL
##  9 2008-10-29 10:41:00      LAC      away      1      shot   LAL
## 10 2008-10-29 10:40:00      LAC      away      1   rebound   LAC
## # ... with 25,544 more rows, and 6 more variables: player <chr>,
## #   result <chr>, points <int>, type <chr>, x <int>, y <int>

그런데 lubridate package 에는 기간(Time intervals) 에 대해 조금 더
세련된 방법으로 처리할 수 있는 함수들을 제공해 주고 있다.

interval() 함수와 %within% 연산자를 이용하면
조금 더 직관적인 서브세팅을 할 수 있다.

아래처럼 말이다.

inter <- interval(ymd_hms("2008-10-28 12:00:00"), ymd_hms("2009-03-09 00:33:00"))
lakers %>% 
    filter(time_index %within% inter)

## # A tibble: 25,554 x 12
##             time_index opponent game_type period     etype  team
##                 <dttm>    <chr>     <chr>  <int>     <chr> <chr>
##  1 2008-10-28 12:00:00      POR      home      1 jump ball   OFF
##  2 2008-10-29 12:00:00      LAC      away      1 jump ball   OFF
##  3 2008-10-29 11:36:00      LAC      away      1      shot   LAL
##  4 2008-10-29 11:24:00      LAC      away      1      shot   LAC
##  5 2008-10-29 11:24:00      LAC      away      1   rebound   LAL
##  6 2008-10-29 11:08:00      LAC      away      1      shot   LAL
##  7 2008-10-29 10:58:00      LAC      away      1      shot   LAC
##  8 2008-10-29 10:57:00      LAC      away      1   rebound   LAL
##  9 2008-10-29 10:41:00      LAC      away      1      shot   LAL
## 10 2008-10-29 10:40:00      LAC      away      1   rebound   LAC
## # ... with 25,544 more rows, and 6 more variables: player <chr>,
## #   result <chr>, points <int>, type <chr>, x <int>, y <int>

2개의 조건을 머리아프게 정의하는것 보단

interval() 를 사용한 방법이 훨씬 직관적일 수 있겠다.

참고로 덧붙이면 interval() 함수대신 %--%
연산자를 써도 된다.

%--% 를 “~” 처럼 생각하면 편할 것 같다.

inter <- ymd_hms("2008-10-28 12:00:00") %--% ymd_hms("2009-03-09 00:33:00")
lakers %>% 
    filter(time_index %within% inter)

## # A tibble: 25,554 x 12
##             time_index opponent game_type period     etype  team
##                 <dttm>    <chr>     <chr>  <int>     <chr> <chr>
##  1 2008-10-28 12:00:00      POR      home      1 jump ball   OFF
##  2 2008-10-29 12:00:00      LAC      away      1 jump ball   OFF
##  3 2008-10-29 11:36:00      LAC      away      1      shot   LAL
##  4 2008-10-29 11:24:00      LAC      away      1      shot   LAC
##  5 2008-10-29 11:24:00      LAC      away      1   rebound   LAL
##  6 2008-10-29 11:08:00      LAC      away      1      shot   LAL
##  7 2008-10-29 10:58:00      LAC      away      1      shot   LAC
##  8 2008-10-29 10:57:00      LAC      away      1   rebound   LAL
##  9 2008-10-29 10:41:00      LAC      away      1      shot   LAL
## 10 2008-10-29 10:40:00      LAC      away      1   rebound   LAC
## # ... with 25,544 more rows, and 6 more variables: player <chr>,
## #   result <chr>, points <int>, type <chr>, x <int>, y <int>
…
