lovetoken
…
con 을 명시하여 데이터테이블을 생성시키고, 삭제하는 실습을 곧 하게 될 것인데

그렇게 되면 모두 커넥션이 맺어진 data/SQLiteDB.sqlite 파일에 적용된다는점을 미리 말해 둔다.

테이블 생성하기

가지고 놀아볼 데이터를 R에서 생성시켜보자 정말 별거 아닌 데이터지만 쓸데없이 크게 (n = 100000) 만들어보는 코드이다.

library(stringi)
n = 100000
data <- data.frame(id = stri_rand_strings(n, 12), col1 = rnorm(n), col2 = runif(n)) %>% tbl_df
data

## # A tibble: 100,000 x 3
##    id             col1  col2
##    <chr>         <dbl> <dbl>
##  1 rIE8F9sSaYTg -0.584 0.794
##  2 VdURMrRBzJnK  1.76  0.444
##  3 XPalm4OzhTqg  0.680 0.543
##  4 rDfHVMnc2UxG -0.262 0.804
##  5 xuRKywMF02vA  0.323 0.938
##  6 GDsDVNFjHApd -0.818 0.508
##  7 1zuKONsUMLTw -0.737 0.480
##  8 VlCzuSv2zIwv  0.320 0.157
##  9 X4H0KoPkb3Ou  0.821 0.199
## 10 GbDJhiPZpHJC -0.337 0.456
## # ... with 99,990 more rows
…
