lovetoken
…
caret 패키지의 명칭은 "Classification And REgression Training" 의 앞글자를 따와 명명되었다.

주 관심 대상이 되는 종속변수(예측변수)가 명목형 변수라면 "Classification", 연속형 변수라면 "Regression" 으로 갈피를 잡아 "Training" 을 하게 될 텐데, 이 과정을 caret 패키지를 이용해 코딩해 본 가장 간단한 예제로 시작해 보겠다.

library(tidyverse) # for tidy tools (pipe operation, tibble, etc..)
library(caret)

set.seed(1234) # for reproducibility

data(Sonar, package = "mlbench")
Sonar <- Sonar %>% tbl_df
Sonar

## # A tibble: 208 x 61
##        V1     V2     V3     V4     V5     V6     V7     V8     V9    V10
## *   <dbl>  <dbl>  <dbl>  <dbl>  <dbl>  <dbl>  <dbl>  <dbl>  <dbl>  <dbl>
## 1  0.0200 0.0371 0.0428 0.0207 0.0954 0.0986 0.1539 0.1601 0.3109 0.2111
## 2  0.0453 0.0523 0.0843 0.0689 0.1183 0.2583 0.2156 0.3481 0.3337 0.2872
## 3  0.0262 0.0582 0.1099 0.1083 0.0974 0.2280 0.2431 0.3771 0.5598 0.6194
## 4  0.0100 0.0171 0.0623 0.0205 0.0205 0.0368 0.1098 0.1276 0.0598 0.1264
## 5  0.0762 0.0666 0.0481 0.0394 0.0590 0.0649 0.1209 0.2467 0.3564 0.4459
## 6  0.0286 0.0453 0.0277 0.0174 0.0384 0.0990 0.1201 0.1833 0.2105 0.3039
## 7  0.0317 0.0956 0.1321 0.1408 0.1674 0.1710 0.0731 0.1401 0.2083 0.3513
## 8  0.0519 0.0548 0.0842 0.0319 0.1158 0.0922 0.1027 0.0613 0.1465 0.2838
## 9  0.0223 0.0375 0.0484 0.0475 0.0647 0.0591 0.0753 0.0098 0.0684 0.1487
## 10 0.0164 0.0173 0.0347 0.0070 0.0187 0.0671 0.1056 0.0697 0.0962 0.0251
## # ... with 198 more rows, and 51 more variables: V11 <dbl>, V12 <dbl>,
## #   V13 <dbl>, V14 <dbl>, V15 <dbl>, V16 <dbl>, V17 <dbl>, V18 <dbl>,
## #   V19 <dbl>, V20 <dbl>, V21 <dbl>, V22 <dbl>, V23 <dbl>, V24 <dbl>,
## #   V25 <dbl>, V26 <dbl>, V27 <dbl>, V28 <dbl>, V29 <dbl>, V30 <dbl>,
## #   V31 <dbl>, V32 <dbl>, V33 <dbl>, V34 <dbl>, V35 <dbl>, V36 <dbl>,
## #   V37 <dbl>, V38 <dbl>, V39 <dbl>, V40 <dbl>, V41 <dbl>, V42 <dbl>,
## #   V43 <dbl>, V44 <dbl>, V45 <dbl>, V46 <dbl>, V47 <dbl>, V48 <dbl>,
## #   V49 <dbl>, V50 <dbl>, V51 <dbl>, V52 <dbl>, V53 <dbl>, V54 <dbl>,
## #   V55 <dbl>, V56 <dbl>, V57 <dbl>, V58 <dbl>, V59 <dbl>, V60 <dbl>,
…
이 함수에는 p 인자가 있어 특정비율로 파티셔닝할 때 편하다.

또한 위의 예제코드 sample() 함수를 이용할 때는 완전무작위추출(SRS; Simple Random Sampling) 이 되기 때문에 종속변수의 요인별 비율을 고려하지 않고 무작위 샘플링이 되지만, createDataPartition() 함수를 이용할 경우 종속변수의 요인별 비율만큼 층화랜덤추출을 기본적으로 지원하기 때문에 안전하고 요긴하다.

단 반환되는 타입이 기본적으로 list 이므로 list 인자값을 FALSE로 해 보았다.

indexTrain <- createDataPartition(Sonar$Class, p = .7, list = F)
training <- Sonar[ indexTrain, ]
testing  <- Sonar[-indexTrain, ]

7:3 비율만큼 잘 파티셔닝이 되어있는지 확인해 보면

training

## # A tibble: 148 x 61
##        V1     V2     V3     V4     V5     V6     V7     V8     V9    V10
##     <dbl>  <dbl>  <dbl>  <dbl>  <dbl>  <dbl>  <dbl>  <dbl>  <dbl>  <dbl>
## 1  0.0262 0.0582 0.1099 0.1083 0.0974 0.2280 0.2431 0.3771 0.5598 0.6194
## 2  0.0100 0.0171 0.0623 0.0205 0.0205 0.0368 0.1098 0.1276 0.0598 0.1264
## 3  0.0286 0.0453 0.0277 0.0174 0.0384 0.0990 0.1201 0.1833 0.2105 0.3039
## 4  0.0519 0.0548 0.0842 0.0319 0.1158 0.0922 0.1027 0.0613 0.1465 0.2838
## 5  0.0223 0.0375 0.0484 0.0475 0.0647 0.0591 0.0753 0.0098 0.0684 0.1487
## 6  0.0164 0.0173 0.0347 0.0070 0.0187 0.0671 0.1056 0.0697 0.0962 0.0251
## 7  0.0039 0.0063 0.0152 0.0336 0.0310 0.0284 0.0396 0.0272 0.0323 0.0452
## 8  0.0123 0.0309 0.0169 0.0313 0.0358 0.0102 0.0182 0.0579 0.1122 0.0835
## 9  0.0090 0.0062 0.0253 0.0489 0.1197 0.1589 0.1392 0.0987 0.0955 0.1895
## 10 0.0298 0.0615 0.0650 0.0921 0.1615 0.2294 0.2176 0.2033 0.1459 0.0852
## # ... with 138 more rows, and 51 more variables: V11 <dbl>, V12 <dbl>,
## #   V13 <dbl>, V14 <dbl>, V15 <dbl>, V16 <dbl>, V17 <dbl>, V18 <dbl>,
## #   V19 <dbl>, V20 <dbl>, V21 <dbl>, V22 <dbl>, V23 <dbl>, V24 <dbl>,
## #   V25 <dbl>, V26 <dbl>, V27 <dbl>, V28 <dbl>, V29 <dbl>, V30 <dbl>,
## #   V31 <dbl>, V32 <dbl>, V33 <dbl>, V34 <dbl>, V35 <dbl>, V36 <dbl>,
## #   V37 <dbl>, V38 <dbl>, V39 <dbl>, V40 <dbl>, V41 <dbl>, V42 <dbl>,
## #   V43 <dbl>, V44 <dbl>, V45 <dbl>, V46 <dbl>, V47 <dbl>, V48 <dbl>,
## #   V49 <dbl>, V50 <dbl>, V51 <dbl>, V52 <dbl>, V53 <dbl>, V54 <dbl>,
## #   V55 <dbl>, V56 <dbl>, V57 <dbl>, V58 <dbl>, V59 <dbl>, V60 <dbl>,
## #   Class <fctr>

testing

## # A tibble: 60 x 61
##        V1     V2     V3     V4     V5     V6     V7     V8     V9    V10
##     <dbl>  <dbl>  <dbl>  <dbl>  <dbl>  <dbl>  <dbl>  <dbl>  <dbl>  <dbl>
## 1  0.0200 0.0371 0.0428 0.0207 0.0954 0.0986 0.1539 0.1601 0.3109 0.2111
## 2  0.0453 0.0523 0.0843 0.0689 0.1183 0.2583 0.2156 0.3481 0.3337 0.2872
## 3  0.0762 0.0666 0.0481 0.0394 0.0590 0.0649 0.1209 0.2467 0.3564 0.4459
## 4  0.0317 0.0956 0.1321 0.1408 0.1674 0.1710 0.0731 0.1401 0.2083 0.3513
## 5  0.0079 0.0086 0.0055 0.0250 0.0344 0.0546 0.0528 0.0958 0.1009 0.1240
## 6  0.0124 0.0433 0.0604 0.0449 0.0597 0.0355 0.0531 0.0343 0.1052 0.2120
## 7  0.0126 0.0149 0.0641 0.1732 0.2565 0.2559 0.2947 0.4110 0.4983 0.5920
## 8  0.0473 0.0509 0.0819 0.1252 0.1783 0.3070 0.3008 0.2362 0.3830 0.3759
## 9  0.0099 0.0484 0.0299 0.0297 0.0652 0.1077 0.2363 0.2385 0.0075 0.1882
## 10 0.0151 0.0320 0.0599 0.1050 0.1163 0.1734 0.1679 0.1119 0.0889 0.1205
## # ... with 50 more rows, and 51 more variables: V11 <dbl>, V12 <dbl>,
## #   V13 <dbl>, V14 <dbl>, V15 <dbl>, V16 <dbl>, V17 <dbl>, V18 <dbl>,
## #   V19 <dbl>, V20 <dbl>, V21 <dbl>, V22 <dbl>, V23 <dbl>, V24 <dbl>,
## #   V25 <dbl>, V26 <dbl>, V27 <dbl>, V28 <dbl>, V29 <dbl>, V30 <dbl>,
## #   V31 <dbl>, V32 <dbl>, V33 <dbl>, V34 <dbl>, V35 <dbl>, V36 <dbl>,
## #   V37 <dbl>, V38 <dbl>, V39 <dbl>, V40 <dbl>, V41 <dbl>, V42 <dbl>,
## #   V43 <dbl>, V44 <dbl>, V45 <dbl>, V46 <dbl>, V47 <dbl>, V48 <dbl>,
## #   V49 <dbl>, V50 <dbl>, V51 <dbl>, V52 <dbl>, V53 <dbl>, V54 <dbl>,
## #   V55 <dbl>, V56 <dbl>, V57 <dbl>, V58 <dbl>, V59 <dbl>, V60 <dbl>,
…
