lovetoken
…
데이터 현황과 전처리
수행과정

공급받은 데이터는 포스코 본사에 있는 포항 항구 근처에서 수집한 파고,
및 해수온도, 풍향등의 데이터이며 수집 지점은 월포, 구룡포 두 지점에 대한
약 3년치 자료이다.

그리고 과거 3년에 너울이 발생했는지의 여부를 시간 단위로 판단할 수 있는
정답지 데이터 (Training dataset), 그리고 과제의 미션으로 예측을 해내야
하는 시점이 언제인지를 알려주는 시험지 데이터(Predict dataset)로
구성되어 있다고 볼 수 있다.

## # A tibble: 2,247 x 11
##      loc date       mean_temp max_temp min_temp mean_signi_wh mean_wh
##    <int> <date>         <dbl>    <dbl>    <dbl>         <dbl>   <dbl>
##  1 22453 2014-01-01      13.7     13.8     13.6           0.6     0.4
##  2 22453 2014-01-02      14       14.3     13.6           0.7     0.5
##  3 22453 2014-01-03      14.4     14.9     14.1           0.6     0.4
##  4 22453 2014-01-04      14.5     14.8     13.9           1.3     0.8
##  5 22453 2014-01-05      14.4     14.6     14.3           1.5     0.9
##  6 22453 2014-01-06      14.1     14.3     14             1.1     0.7
##  7 22453 2014-01-07      13.9     14.3     13.7           0.7     0.4
##  8 22453 2014-01-08      13.8     14.1     13.4           0.4     0.3
##  9 22453 2014-01-09      13.8     14.3     13.2           1.4     0.8
## 10 22453 2014-01-10      13.5     13.9     13.1           1       0.6
## # ... with 2,237 more rows, and 4 more variables: max_signi_wh <dbl>,
## #   max_wh <dbl>, mean_cycle <dbl>, max_cycle <dbl>

제공받은 항구별 수집 정보들의 rawdata 의 샘플

## # A tibble: 1,231 x 5
##    date       swell start_time end_time testset
##    <date>     <dbl> <time>     <time>     <int>
##  1 2014-01-04  NA   15:00      19:00          0
##  2 2014-01-04  NA   19:00      07:00          0
##  3 2014-01-05  NA   07:00      10:00          0
##  4 2014-01-05   3   10:00      13:00          0
##  5 2014-01-08  NA   10:00      19:00          0
##  6 2014-01-09   4.5 14:30      19:00          0
##  7 2014-01-09  12   19:00      07:00          0
##  8 2014-01-10   3   07:00      10:00          0
##  9 2014-01-10   2   10:00      13:00          0
## 10 2014-01-21   1.5 00:30      02:00          0
## # ... with 1,221 more rows

제공받은 정답지 데이터와 시험지 데이터의 rawdata 샘플

제공받은 데이터 외의 다른 데이터를 이용해도 된다는 주최측의 안내를
받고 자체적으로 추가 수집한 데이터도 있었으며

그 데이터는 포항 앞바다의 부이1로 부터 수집된
데이터이다.2

## # A tibble: 8,541 x 14
##    location date  wind_speed wind_direction  GUST local_air_press~ humidity
##       <int> <chr>      <dbl>          <int> <dbl>            <dbl>    <int>
##  1    22106 2014~        8.2            259  11.1            1008.       44
##  2    22106 2014~       10.6            287  15.1            1009.       43
##  3    22106 2014~       11.7            287  14.9            1009.       42
##  4    22106 2014~       11.5            302  16.2            1010.       46
##  5    22106 2014~       11.8            284  16.4            1010.       50
##  6    22106 2014~        9.1            294  12.4            1010.       48
##  7    22106 2014~        7.3            293  11.7            1012.       43
##  8    22106 2014~        6.4            298   8.5            1012.       37
##  9    22106 2014~        5              296   8.1            1013.       35
## 10    22106 2014~        6.3            270   9.5            1014.       35
## # ... with 8,531 more rows, and 7 more variables: temperature <dbl>,
## #   water_temperature <dbl>, max_wave_height <dbl>,
## #   mean_wave_height <dbl>, avg_wave_height <dbl>, wave_accurance <dbl>,
## #   wave_direction <int>

추가로 수집한 부이데이터의 rawdata 샘플

이러한 데이터들을 충분히 EDA 한 후 머신러닝이나 딥러닝의 프레임워크
툴들이 학습하기 용이하도록 학습데이터 마트로 만들기 위한 단계를
거쳤다.

너울성 파도의 여부를 swell 이란 필드명으로 각 시간별
상황데이터(파고, 풍향, 풍속, 수온 등등의 설명변수집합)에 맵핑하는
전처리를 수행하였다.

그 결과는 아래와 같다.

## # A tibble: 6,909 x 15
##    date   time swell wind_speed wind_direction  GUST air_pressure humidity
##    <chr> <int> <int>      <dbl>          <int> <dbl>        <dbl>    <int>
##  1 2014~     0     1       11              302  14          1026.       47
##  2 2014~     1     1       11.1            315  16.1        1027.       45
##  3 2014~    10     1        9.9            320  14.1        1030.       54
##  4 2014~    11     1        9.8            306  13          1030.       54
##  5 2014~    12     1        8.7            324  13.6        1030        49
##  6 2014~     2     1       11.7            314  15.4        1027.       46
##  7 2014~     3     1       12.4            324  16.8        1027.       49
##  8 2014~     4     1       12.5            320  17.8        1028.       45
##  9 2014~     5     1       13.7            311  17.5        1029.       49
## 10 2014~     6     1       14.2            320  17.5        1029.       50
## # ... with 6,899 more rows, and 7 more variables: temperature <dbl>,
## #   water_temperature <dbl>, max_wave_height <dbl>,
## #   mean_wave_height <dbl>, avg_wave_height <dbl>, wave_accurance <dbl>,
## #   wave_direction <int>
…
